<svg width="411" height="360" viewBox="0 0 411 360" fill="none" xmlns="http://www.w3.org/2000/svg">
<rect x="2.5" y="136.5" width="406" height="221" rx="14.5" fill="#EFCADA" stroke="#515395" stroke-width="5"/>
<path d="M5 310C5 308.343 6.34315 307 8 307H406V342C406 349.732 399.732 356 392 356H19C11.268 356 5 349.732 5 342V310Z" fill="#D0A7B8"/>
<path d="M5 326.056C5 315.531 11.268 307 19 307H392C399.732 307 406 315.531 406 326.056V336.944C406 347.469 399.732 356 392 356H19C11.268 356 5 347.469 5 336.944V326.056Z" fill="#D0A7B8"/>
<path d="M5 315C5 303.954 13.9543 295 25 295H384.742C393.24 295 397.92 304.875 392.539 311.453L390.174 314.342C387.886 317.14 388.351 321.273 391.204 323.492C396.038 327.251 393.379 335 387.255 335H25C13.9543 335 5 326.046 5 315Z" fill="#EFCADA"/>
<path d="M5 310.556C5 301.964 11.268 295 19 295H392C399.732 295 406 301.964 406 310.556V319.444C406 328.036 399.732 335 392 335H19C11.268 335 5 328.036 5 319.444V310.556Z" fill="#EFCADA"/>
<path d="M236.784 247.578C218.324 260.684 193.612 260.752 175.08 247.747L16.9145 136.75L392.882 136.75L236.784 247.578Z" fill="#B37F95" stroke="#515395" stroke-width="5"/>
<path d="M172.938 24.9224C191.398 11.8157 216.11 11.748 234.642 24.7533L392.807 135.75H16.8396L172.938 24.9224Z" fill="#B37F95" stroke="#515395" stroke-width="5"/>
<path d="M172.938 245.922C191.398 232.816 216.11 232.748 234.642 245.753L392.807 356.75H16.8396L172.938 245.922Z" stroke="#515395" stroke-width="5"/>
<path d="M243.5 265C239.197 276.952 225.106 284 205.5 284C185.894 284 168 273.703 168 261C165.5 249 185.894 238 205.5 238C225.5 240 248 252.5 243.5 265Z" fill="#EFCADA"/>
<path d="M25 133.125L384 132.5L389 136.5L382.5 141L26 140L23 138L20.5 136L25 133.125Z" fill="#B37F95"/>
</svg>
